info face="Liberation Mono" size=20 bold=0 italic=0 smooth=1 spacing=0,0
common lineHeight=30 base=23 scaleW=2048 scaleH=32 pages=1
page id=0 file="liberation_mono_bold_20.png"
char id=32 x=1 y=21 width=0 height=0 xoffset=0 yoffset=23 xadvance=16 page=0
char id=33 x=2 y=3 width=5 height=18 xoffset=6 yoffset=5 xadvance=16 page=0
char id=34 x=8 y=1 width=10 height=8 xoffset=3 yoffset=3 xadvance=16 page=0
char id=35 x=19 y=3 width=16 height=18 xoffset=0 yoffset=5 xadvance=16 page=0
char id=36 x=36 y=1 width=16 height=22 xoffset=0 yoffset=3 xadvance=16 page=0
char id=37 x=53 y=3 width=17 height=18 xoffset=0 yoffset=5 xadvance=16 page=0
char id=38 x=71 y=3 width=17 height=18 xoffset=0 yoffset=5 xadvance=16 page=0
char id=39 x=89 y=1 width=4 height=8 xoffset=6 yoffset=3 xadvance=16 page=0
char id=40 x=94 y=1 width=9 height=26 xoffset=4 yoffset=3 xadvance=16 page=0
char id=41 x=104 y=1 width=8 height=26 xoffset=4 yoffset=3 xadvance=16 page=0
char id=42 x=113 y=1 width=12 height=10 xoffset=2 yoffset=3 xadvance=16 page=0
char id=43 x=126 y=6 width=14 height=13 xoffset=1 yoffset=8 xadvance=16 page=0
char id=44 x=141 y=17 width=7 height=9 xoffset=3 yoffset=19 xadvance=16 page=0
char id=45 x=149 y=12 width=8 height=3 xoffset=4 yoffset=14 xadvance=16 page=0
char id=46 x=158 y=17 width=4 height=4 xoffset=6 yoffset=19 xadvance=16 page=0
char id=47 x=163 y=1 width=14 height=20 xoffset=1 yoffset=3 xadvance=16 page=0
char id=48 x=178 y=3 width=14 height=18 xoffset=1 yoffset=5 xadvance=16 page=0
char id=49 x=193 y=3 width=15 height=18 xoffset=1 yoffset=5 xadvance=16 page=0
char id=50 x=209 y=3 width=14 height=18 xoffset=1 yoffset=5 xadvance=16 page=0
char id=51 x=224 y=3 width=14 height=18 xoffset=1 yoffset=5 xadvance=16 page=0
char id=52 x=239 y=3 width=16 height=18 xoffset=0 yoffset=5 xadvance=16 page=0
char id=53 x=256 y=3 width=14 height=18 xoffset=1 yoffset=5 xadvance=16 page=0
char id=54 x=271 y=3 width=14 height=18 xoffset=1 yoffset=5 xadvance=16 page=0
char id=55 x=286 y=3 width=14 height=18 xoffset=1 yoffset=5 xadvance=16 page=0
char id=56 x=301 y=3 width=14 height=18 xoffset=1 yoffset=5 xadvance=16 page=0
char id=57 x=316 y=3 width=14 height=18 xoffset=1 yoffset=5 xadvance=16 page=0
char id=58 x=331 y=6 width=4 height=15 xoffset=6 yoffset=8 xadvance=16 page=0
char id=59 x=336 y=6 width=7 height=20 xoffset=4 yoffset=8 xadvance=16 page=0
char id=60 x=344 y=5 width=14 height=14 xoffset=1 yoffset=7 xadvance=16 page=0
char id=61 x=359 y=8 width=14 height=9 xoffset=1 yoffset=10 xadvance=16 page=0
char id=62 x=374 y=5 width=14 height=14 xoffset=1 yoffset=7 xadvance=16 page=0
char id=63 x=389 y=3 width=15 height=18 xoffset=0 yoffset=5 xadvance=16 page=0
char id=64 x=405 y=1 width=16 height=24 xoffset=0 yoffset=3 xadvance=16 page=0
char id=65 x=422 y=3 width=17 height=18 xoffset=0 yoffset=5 xadvance=16 page=0
char id=66 x=440 y=3 width=15 height=18 xoffset=1 yoffset=5 xadvance=16 page=0
char id=67 x=456 y=3 width=15 height=18 xoffset=1 yoffset=5 xadvance=16 page=0
char id=68 x=472 y=3 width=15 height=18 xoffset=1 yoffset=5 xadvance=16 page=0
char id=69 x=488 y=3 width=15 height=18 xoffset=1 yoffset=5 xadvance=16 page=0
char id=70 x=504 y=3 width=13 height=18 xoffset=2 yoffset=5 xadvance=16 page=0
char id=71 x=518 y=3 width=14 height=18 xoffset=1 yoffset=5 xadvance=16 page=0
char id=72 x=533 y=3 width=14 height=18 xoffset=1 yoffset=5 xadvance=16 page=0
char id=73 x=548 y=3 width=13 height=18 xoffset=2 yoffset=5 xadvance=16 page=0
char id=74 x=562 y=3 width=13 height=18 xoffset=1 yoffset=5 xadvance=16 page=0
char id=75 x=576 y=3 width=16 height=18 xoffset=1 yoffset=5 xadvance=16 page=0
char id=76 x=593 y=3 width=13 height=18 xoffset=2 yoffset=5 xadvance=16 page=0
char id=77 x=607 y=3 width=14 height=18 xoffset=1 yoffset=5 xadvance=16 page=0
char id=78 x=622 y=3 width=14 height=18 xoffset=1 yoffset=5 xadvance=16 page=0
char id=79 x=637 y=3 width=16 height=18 xoffset=0 yoffset=5 xadvance=16 page=0
char id=80 x=654 y=3 width=15 height=18 xoffset=1 yoffset=5 xadvance=16 page=0
char id=81 x=670 y=3 width=16 height=24 xoffset=0 yoffset=5 xadvance=16 page=0
char id=82 x=687 y=3 width=16 height=18 xoffset=1 yoffset=5 xadvance=16 page=0
char id=83 x=704 y=3 width=16 height=18 xoffset=0 yoffset=5 xadvance=16 page=0
char id=84 x=721 y=3 width=16 height=18 xoffset=0 yoffset=5 xadvance=16 page=0
char id=85 x=738 y=3 width=14 height=18 xoffset=1 yoffset=5 xadvance=16 page=0
char id=86 x=753 y=3 width=17 height=18 xoffset=0 yoffset=5 xadvance=16 page=0
char id=87 x=771 y=3 width=17 height=18 xoffset=0 yoffset=5 xadvance=16 page=0
char id=88 x=789 y=3 width=17 height=18 xoffset=0 yoffset=5 xadvance=16 page=0
char id=89 x=807 y=3 width=17 height=18 xoffset=0 yoffset=5 xadvance=16 page=0
char id=90 x=825 y=3 width=14 height=18 xoffset=1 yoffset=5 xadvance=16 page=0
char id=91 x=840 y=1 width=9 height=26 xoffset=4 yoffset=3 xadvance=16 page=0
char id=92 x=850 y=1 width=15 height=20 xoffset=1 yoffset=3 xadvance=16 page=0
char id=93 x=866 y=1 width=9 height=26 xoffset=3 yoffset=3 xadvance=16 page=0
char id=94 x=876 y=3 width=16 height=12 xoffset=0 yoffset=5 xadvance=16 page=0
char id=95 x=893 y=23 width=18 height=1 xoffset=-1 yoffset=25 xadvance=16 page=0
char id=96 x=912 y=1 width=8 height=4 xoffset=4 yoffset=3 xadvance=16 page=0
char id=97 x=921 y=6 width=15 height=15 xoffset=1 yoffset=8 xadvance=16 page=0
char id=98 x=937 y=1 width=14 height=20 xoffset=1 yoffset=3 xadvance=16 page=0
char id=99 x=952 y=6 width=14 height=15 xoffset=1 yoffset=8 xadvance=16 page=0
char id=100 x=967 y=1 width=14 height=20 xoffset=1 yoffset=3 xadvance=16 page=0
char id=101 x=982 y=6 width=14 height=15 xoffset=1 yoffset=8 xadvance=16 page=0
char id=102 x=997 y=1 width=14 height=20 xoffset=1 yoffset=3 xadvance=16 page=0
char id=103 x=1012 y=6 width=14 height=21 xoffset=1 yoffset=8 xadvance=16 page=0
char id=104 x=1027 y=1 width=14 height=20 xoffset=1 yoffset=3 xadvance=16 page=0
char id=105 x=1042 y=1 width=15 height=20 xoffset=1 yoffset=3 xadvance=16 page=0
char id=106 x=1058 y=1 width=11 height=26 xoffset=1 yoffset=3 xadvance=16 page=0
char id=107 x=1070 y=1 width=14 height=20 xoffset=2 yoffset=3 xadvance=16 page=0
char id=108 x=1085 y=1 width=15 height=20 xoffset=1 yoffset=3 xadvance=16 page=0
char id=109 x=1101 y=6 width=16 height=15 xoffset=0 yoffset=8 xadvance=16 page=0
char id=110 x=1118 y=6 width=14 height=15 xoffset=1 yoffset=8 xadvance=16 page=0
char id=111 x=1133 y=6 width=14 height=15 xoffset=1 yoffset=8 xadvance=16 page=0
char id=112 x=1148 y=6 width=14 height=21 xoffset=1 yoffset=8 xadvance=16 page=0
char id=113 x=1163 y=6 width=14 height=21 xoffset=1 yoffset=8 xadvance=16 page=0
char id=114 x=1178 y=6 width=13 height=15 xoffset=2 yoffset=8 xadvance=16 page=0
char id=115 x=1192 y=6 width=14 height=15 xoffset=1 yoffset=8 xadvance=16 page=0
char id=116 x=1207 y=2 width=12 height=19 xoffset=2 yoffset=4 xadvance=16 page=0
char id=117 x=1220 y=6 width=14 height=15 xoffset=1 yoffset=8 xadvance=16 page=0
char id=118 x=1235 y=6 width=16 height=15 xoffset=0 yoffset=8 xadvance=16 page=0
char id=119 x=1252 y=6 width=17 height=15 xoffset=0 yoffset=8 xadvance=16 page=0
char id=120 x=1270 y=6 width=16 height=15 xoffset=0 yoffset=8 xadvance=16 page=0
char id=121 x=1287 y=6 width=16 height=21 xoffset=0 yoffset=8 xadvance=16 page=0
char id=122 x=1304 y=6 width=14 height=15 xoffset=1 yoffset=8 xadvance=16 page=0
char id=123 x=1319 y=1 width=12 height=26 xoffset=2 yoffset=3 xadvance=16 page=0
char id=124 x=1332 y=1 width=4 height=26 xoffset=6 yoffset=3 xadvance=16 page=0
char id=125 x=1337 y=1 width=12 height=26 xoffset=2 yoffset=3 xadvance=16 page=0
char id=126 x=1350 y=10 width=14 height=5 xoffset=1 yoffset=12 xadvance=16 page=0
